…
```
## Parsed with column specification:
## cols(
##   X1 = col_integer(),
##   SeriesCode = col_character(),
##   IndicatorName = col_character()
## )
```

```r
head(distinct_indicator_names_and_codes,'20')
```

```
## # A tibble: 1,345 x 3
##       X1           SeriesCode
##    <int>                <chr>
##  1     0       BN.KLT.DINV.CD
##  2     1 BX.KLT.DINV.WD.GD.ZS
##  3     2    BX.KLT.DINV.CD.WD
##  4     3    BM.KLT.DINV.GD.ZS
##  5     4       BN.TRF.KOGT.CD
##  6     5       BN.KAC.EOMS.CD
##  7     6       BN.FIN.TOTL.CD
##  8     7    BX.PEF.TOTL.CD.WD
##  9     8       BN.KLT.PTXL.CD
## 10     9    BX.KLT.DREM.CD.DT
## # ... with 1,335 more rows, and 1 more variables: IndicatorName <chr>
```
…
